EESchema Schematic File Version 2
LIBS:power
LIBS:device
LIBS:transistors
LIBS:conn
LIBS:linear
LIBS:regul
LIBS:74xx
LIBS:cmos4000
LIBS:adc-dac
LIBS:memory
LIBS:xilinx
LIBS:microcontrollers
LIBS:dsp
LIBS:microchip
LIBS:analog_switches
LIBS:motorola
LIBS:texas
LIBS:intel
LIBS:audio
LIBS:interface
LIBS:digital-audio
LIBS:philips
LIBS:display
LIBS:cypress
LIBS:siliconi
LIBS:opto
LIBS:atmel
LIBS:contrib
LIBS:valves
LIBS:I2C_BatteryMonitor-cache
EELAYER 25 0
EELAYER END
$Descr A4 11693 8268
encoding utf-8
Sheet 1 1
Title "I2C Battery Monitor"
Date "2016-11-17"
Rev "1.1"
Comp ""
Comment1 ""
Comment2 ""
Comment3 ""
Comment4 ""
$EndDescr
$Comp
L ATTINY24A-MM IC1
U 1 1 582D2345
P 1800 2200
F 0 "IC1" H 950 2950 50  0000 C CNN
F 1 "ATTINY24A-MM" H 2450 1450 50  0000 C CNN
F 2 "Housings_DFN_QFN:UQFN-20-1EP_4x4mm_Pitch0.5mm" H 1800 2000 50  0000 C CIN
F 3 "" H 1800 2200 50  0000 C CNN
	1    1800 2200
	1    0    0    -1  
$EndComp
$Comp
L CONN_01X02 P1
U 1 1 582D288D
P 10950 5650
F 0 "P1" H 10950 5800 50  0000 C CNN
F 1 "CONN_01X02" V 11050 5650 50  0000 C CNN
F 2 "Pin_Headers:Pin_Header_Straight_1x02" H 10950 5650 50  0001 C CNN
F 3 "" H 10950 5650 50  0000 C CNN
	1    10950 5650
	1    0    0    1   
$EndComp
$Comp
L GND #PWR01
U 1 1 582D2BE0
P 10750 5900
F 0 "#PWR01" H 10750 5650 50  0001 C CNN
F 1 "GND" H 10750 5750 50  0000 C CNN
F 2 "" H 10750 5900 50  0000 C CNN
F 3 "" H 10750 5900 50  0000 C CNN
	1    10750 5900
	1    0    0    -1  
$EndComp
$Comp
L R R4
U 1 1 582D2C9D
P 10750 5200
F 0 "R4" V 10830 5200 50  0000 C CNN
F 1 "100k" V 10750 5200 50  0000 C CNN
F 2 "Resistors_SMD:R_0603" V 10680 5200 50  0001 C CNN
F 3 "" H 10750 5200 50  0000 C CNN
	1    10750 5200
	-1   0    0    1   
$EndComp
Text GLabel 10450 5450 0    60   UnSpc ~ 0
CONFIG
$Comp
L +5V #PWR02
U 1 1 582D472A
P 10750 4900
F 0 "#PWR02" H 10750 4750 50  0001 C CNN
F 1 "+5V" H 10750 5040 50  0000 C CNN
F 2 "" H 10750 4900 50  0000 C CNN
F 3 "" H 10750 4900 50  0000 C CNN
	1    10750 4900
	1    0    0    -1  
$EndComp
Text GLabel 10250 3650 0    60   Output ~ 0
S2
Text GLabel 10250 3800 0    60   Output ~ 0
S1
Text GLabel 10250 3950 0    60   Output ~ 0
S0
Text GLabel 10250 3500 0    60   Output ~ 0
S3
Text GLabel 10250 3350 0    60   Output ~ 0
S4
Text GLabel 10250 3200 0    60   Output ~ 0
S5
$Comp
L CONN_01X07 P3
U 1 1 582D6205
P 10950 3800
F 0 "P3" H 10950 4200 50  0000 C CNN
F 1 "CONN_01X07" V 11050 3800 50  0000 C CNN
F 2 "Pin_Headers:Pin_Header_Angled_1x07" H 10950 3800 50  0001 C CNN
F 3 "" H 10950 3800 50  0000 C CNN
	1    10950 3800
	1    0    0    1   
$EndComp
$Comp
L +5V #PWR03
U 1 1 582D7258
P 9950 2350
F 0 "#PWR03" H 9950 2200 50  0001 C CNN
F 1 "+5V" H 9950 2490 50  0000 C CNN
F 2 "" H 9950 2350 50  0000 C CNN
F 3 "" H 9950 2350 50  0000 C CNN
	1    9950 2350
	1    0    0    -1  
$EndComp
Text GLabel 9750 1950 0    60   Input ~ 0
SCL
Text GLabel 10050 1850 0    60   BiDi ~ 0
SDA
Text GLabel 3400 2200 2    60   BiDi ~ 0
SDA
Text GLabel 3400 2000 2    60   Input ~ 0
SCL
$Comp
L GND #PWR04
U 1 1 582D8F5A
P 700 2850
F 0 "#PWR04" H 700 2600 50  0001 C CNN
F 1 "GND" H 700 2700 50  0000 C CNN
F 2 "" H 700 2850 50  0000 C CNN
F 3 "" H 700 2850 50  0000 C CNN
	1    700  2850
	1    0    0    -1  
$EndComp
$Comp
L +5V #PWR05
U 1 1 582D8FF9
P 700 1550
F 0 "#PWR05" H 700 1400 50  0001 C CNN
F 1 "+5V" H 700 1690 50  0000 C CNN
F 2 "" H 700 1550 50  0000 C CNN
F 3 "" H 700 1550 50  0000 C CNN
	1    700  1550
	1    0    0    -1  
$EndComp
Text GLabel 7750 5200 2    60   Output ~ 0
INTERRUP
$Comp
L R R1
U 1 1 582D9C7E
P 7550 5550
F 0 "R1" V 7630 5550 50  0000 C CNN
F 1 "100k" V 7550 5550 50  0000 C CNN
F 2 "Resistors_SMD:R_0603" V 7480 5550 50  0001 C CNN
F 3 "" H 7550 5550 50  0000 C CNN
	1    7550 5550
	1    0    0    -1  
$EndComp
$Comp
L GND #PWR06
U 1 1 582D9D27
P 7550 5900
F 0 "#PWR06" H 7550 5650 50  0001 C CNN
F 1 "GND" H 7550 5750 50  0000 C CNN
F 2 "" H 7550 5900 50  0000 C CNN
F 3 "" H 7550 5900 50  0000 C CNN
	1    7550 5900
	1    0    0    -1  
$EndComp
Text GLabel 4400 2500 2    60   Output ~ 0
INTERRUP
Text GLabel 4400 2700 2    60   UnSpc ~ 0
CONFIG
$Comp
L LED PWR_LED1
U 1 1 582DA14F
P 9150 5600
F 0 "PWR_LED1" H 9150 5700 50  0000 C CNN
F 1 "LED" H 9150 5500 50  0000 C CNN
F 2 "LEDs:LED_0603" H 9150 5600 50  0001 C CNN
F 3 "" H 9150 5600 50  0000 C CNN
	1    9150 5600
	0    -1   -1   0   
$EndComp
$Comp
L R R2
U 1 1 582DA1B9
P 9150 5050
F 0 "R2" V 9230 5050 50  0000 C CNN
F 1 "Led0R" V 9150 5050 50  0000 C CNN
F 2 "Resistors_SMD:R_0805" V 9080 5050 50  0001 C CNN
F 3 "" H 9150 5050 50  0000 C CNN
	1    9150 5050
	1    0    0    -1  
$EndComp
$Comp
L LED D1
U 1 1 582DA33B
P 3050 3650
F 0 "D1" H 3050 3750 50  0000 C CNN
F 1 "LED" H 3050 3550 50  0000 C CNN
F 2 "LEDs:LED_0603" H 3050 3650 50  0001 C CNN
F 3 "" H 3050 3650 50  0000 C CNN
	1    3050 3650
	0    -1   -1   0   
$EndComp
$Comp
L R R3
U 1 1 582DA3A6
P 3050 3150
F 0 "R3" V 3130 3150 50  0000 C CNN
F 1 "Led1R" V 3050 3150 50  0000 C CNN
F 2 "Resistors_SMD:R_0805" V 2980 3150 50  0001 C CNN
F 3 "" H 3050 3150 50  0000 C CNN
	1    3050 3150
	1    0    0    -1  
$EndComp
$Comp
L GND #PWR07
U 1 1 582DAA61
P 3050 3950
F 0 "#PWR07" H 3050 3700 50  0001 C CNN
F 1 "GND" H 3050 3800 50  0000 C CNN
F 2 "" H 3050 3950 50  0000 C CNN
F 3 "" H 3050 3950 50  0000 C CNN
	1    3050 3950
	1    0    0    -1  
$EndComp
$Comp
L GND #PWR08
U 1 1 582DAB77
P 9150 5900
F 0 "#PWR08" H 9150 5650 50  0001 C CNN
F 1 "GND" H 9150 5750 50  0000 C CNN
F 2 "" H 9150 5900 50  0000 C CNN
F 3 "" H 9150 5900 50  0000 C CNN
	1    9150 5900
	1    0    0    -1  
$EndComp
$Comp
L CONN_01X05 P4
U 1 1 582DC73C
P 10950 1950
F 0 "P4" H 10950 2250 50  0000 C CNN
F 1 "mainHeader" V 11050 1950 50  0000 C CNN
F 2 "Pin_Headers:Pin_Header_Angled_1x05" H 10950 1950 50  0001 C CNN
F 3 "" H 10950 1950 50  0000 C CNN
	1    10950 1950
	1    0    0    -1  
$EndComp
Text GLabel 9450 2050 0    60   Output ~ 0
INTERRUP
$Comp
L CONN_01X05 P5
U 1 1 582DD82C
P 10950 2550
F 0 "P5" H 10950 2850 50  0000 C CNN
F 1 "extHeader" V 11050 2550 50  0000 C CNN
F 2 "Pin_Headers:Pin_Header_Straight_1x05" H 10950 2550 50  0001 C CNN
F 3 "" H 10950 2550 50  0000 C CNN
	1    10950 2550
	1    0    0    -1  
$EndComp
$Comp
L +5V #PWR09
U 1 1 582DFAC2
P 9150 4800
F 0 "#PWR09" H 9150 4650 50  0001 C CNN
F 1 "+5V" H 9150 4940 50  0000 C CNN
F 2 "" H 9150 4800 50  0000 C CNN
F 3 "" H 9150 4800 50  0000 C CNN
	1    9150 4800
	1    0    0    -1  
$EndComp
$Comp
L GND #PWR010
U 1 1 582DCC2A
P 10300 1500
F 0 "#PWR010" H 10300 1250 50  0001 C CNN
F 1 "GND" H 10300 1350 50  0000 C CNN
F 2 "" H 10300 1500 50  0000 C CNN
F 3 "" H 10300 1500 50  0000 C CNN
	1    10300 1500
	1    0    0    -1  
$EndComp
$Comp
L PWR_FLAG #FLG011
U 1 1 582E0E01
P 10500 750
F 0 "#FLG011" H 10500 845 50  0001 C CNN
F 1 "PWR_FLAG" H 10500 930 50  0000 C CNN
F 2 "" H 10500 750 50  0000 C CNN
F 3 "" H 10500 750 50  0000 C CNN
	1    10500 750 
	1    0    0    -1  
$EndComp
$Comp
L PWR_FLAG #FLG012
U 1 1 582E0E5B
P 10900 850
F 0 "#FLG012" H 10900 945 50  0001 C CNN
F 1 "PWR_FLAG" H 10900 1030 50  0000 C CNN
F 2 "" H 10900 850 50  0000 C CNN
F 3 "" H 10900 850 50  0000 C CNN
	1    10900 850 
	1    0    0    1   
$EndComp
$Comp
L GND #PWR013
U 1 1 582E0EAE
P 10500 900
F 0 "#PWR013" H 10500 650 50  0001 C CNN
F 1 "GND" H 10500 750 50  0000 C CNN
F 2 "" H 10500 900 50  0000 C CNN
F 3 "" H 10500 900 50  0000 C CNN
	1    10500 900 
	1    0    0    -1  
$EndComp
$Comp
L +5V #PWR014
U 1 1 582E0F49
P 10900 700
F 0 "#PWR014" H 10900 550 50  0001 C CNN
F 1 "+5V" H 10900 840 50  0000 C CNN
F 2 "" H 10900 700 50  0000 C CNN
F 3 "" H 10900 700 50  0000 C CNN
	1    10900 700 
	1    0    0    -1  
$EndComp
Connection ~ 10750 5450
Wire Wire Line
	10750 5450 10450 5450
Wire Wire Line
	10750 5350 10750 5600
Wire Wire Line
	10750 5900 10750 5700
Wire Wire Line
	10250 3950 10350 3950
Wire Wire Line
	10350 3950 10350 4000
Wire Wire Line
	10350 4000 10750 4000
Wire Wire Line
	10250 3800 10400 3800
Wire Wire Line
	10400 3800 10400 3900
Wire Wire Line
	10400 3900 10750 3900
Wire Wire Line
	10250 3650 10450 3650
Wire Wire Line
	10450 3650 10450 3800
Wire Wire Line
	10450 3800 10750 3800
Wire Wire Line
	10250 3500 10500 3500
Wire Wire Line
	10500 3500 10500 3700
Wire Wire Line
	10500 3700 10750 3700
Wire Wire Line
	10250 3350 10550 3350
Wire Wire Line
	10550 3350 10550 3600
Wire Wire Line
	10550 3600 10750 3600
Wire Wire Line
	10250 3200 10600 3200
Wire Wire Line
	10600 3200 10600 3500
Wire Wire Line
	10600 3500 10750 3500
Wire Wire Line
	10150 1450 10150 1750
Wire Wire Line
	10150 1750 10750 1750
Wire Wire Line
	5800 1600 2850 1600
Wire Wire Line
	5450 1700 2850 1700
Wire Wire Line
	5100 1800 2850 1800
Wire Wire Line
	4750 1900 2850 1900
Wire Wire Line
	2850 2100 4400 2100
Wire Wire Line
	4050 2300 2850 2300
Wire Wire Line
	2850 2000 3400 2000
Wire Wire Line
	2850 2200 3400 2200
Wire Wire Line
	750  2800 700  2800
Wire Wire Line
	700  2800 700  2850
Wire Wire Line
	700  1550 700  1600
Wire Wire Line
	700  1600 750  1600
Wire Wire Line
	3300 1200 3300 2800
Wire Wire Line
	3300 2800 2850 2800
Wire Wire Line
	3250 1100 3250 2000
Connection ~ 3250 2000
Wire Wire Line
	3200 1000 3200 2100
Connection ~ 3200 2100
Wire Wire Line
	3150 900  3150 2200
Connection ~ 3150 2200
Wire Wire Line
	7550 5900 7550 5700
Wire Wire Line
	7550 5400 7550 5200
Wire Wire Line
	7550 5200 7750 5200
Wire Wire Line
	2850 2500 4400 2500
Wire Wire Line
	4400 2700 2850 2700
Wire Wire Line
	2850 2600 3050 2600
Wire Wire Line
	3050 2600 3050 3000
Wire Wire Line
	9150 5400 9150 5200
Wire Wire Line
	3050 3450 3050 3300
Wire Wire Line
	3050 3950 3050 3850
Wire Wire Line
	9150 4800 9150 4900
Wire Wire Line
	9150 5800 9150 5900
Wire Wire Line
	10050 1850 10750 1850
Wire Wire Line
	9750 1950 10750 1950
Wire Wire Line
	9450 2050 10750 2050
Wire Wire Line
	10150 2150 10750 2150
Wire Wire Line
	4550 900  3150 900 
Wire Wire Line
	4550 1000 3200 1000
Wire Wire Line
	4550 1100 3250 1100
Wire Wire Line
	4550 1200 3300 1200
Wire Wire Line
	10250 2150 10250 2750
Wire Wire Line
	10250 2750 10750 2750
Connection ~ 10250 2150
Wire Wire Line
	10750 2650 10350 2650
Wire Wire Line
	10350 2650 10350 2050
Connection ~ 10350 2050
Wire Wire Line
	10750 2550 10450 2550
Wire Wire Line
	10450 2550 10450 1950
Connection ~ 10450 1950
Wire Wire Line
	10750 2450 10550 2450
Wire Wire Line
	10550 2450 10550 1850
Connection ~ 10550 1850
Wire Wire Line
	10750 2350 10650 2350
Wire Wire Line
	10650 2350 10650 1750
Connection ~ 10650 1750
Wire Wire Line
	10750 4900 10750 5050
Wire Wire Line
	10150 2150 10150 2450
Wire Wire Line
	10500 900  10500 750 
Wire Wire Line
	10900 700  10900 850 
$Comp
L CONN_01X06 P2
U 1 1 582E5CE7
P 4750 1050
F 0 "P2" H 4750 1400 50  0000 C CNN
F 1 "CONN_01X06" V 4850 1050 50  0000 C CNN
F 2 "MyLibrary:AVR programming pads" H 4750 1050 50  0001 C CNN
F 3 "" H 4750 1050 50  0000 C CNN
	1    4750 1050
	1    0    0    1   
$EndComp
$Comp
L +5V #PWR015
U 1 1 582E5D5F
P 4500 750
F 0 "#PWR015" H 4500 600 50  0001 C CNN
F 1 "+5V" H 4500 890 50  0000 C CNN
F 2 "" H 4500 750 50  0000 C CNN
F 3 "" H 4500 750 50  0000 C CNN
	1    4500 750 
	1    0    0    -1  
$EndComp
$Comp
L GND #PWR016
U 1 1 582E5DBB
P 4500 1350
F 0 "#PWR016" H 4500 1100 50  0001 C CNN
F 1 "GND" H 4500 1200 50  0000 C CNN
F 2 "" H 4500 1350 50  0000 C CNN
F 3 "" H 4500 1350 50  0000 C CNN
	1    4500 1350
	1    0    0    -1  
$EndComp
Wire Wire Line
	4500 750  4500 800 
Wire Wire Line
	4500 800  4550 800 
Wire Wire Line
	4500 1350 4500 1300
Wire Wire Line
	4500 1300 4550 1300
Wire Wire Line
	10150 1450 10300 1450
Wire Wire Line
	10300 1450 10300 1500
Wire Wire Line
	9950 2350 9950 2450
Wire Wire Line
	9950 2450 10150 2450
$Comp
L LM324 U1
U 2 1 582F6A9B
P 1550 6900
F 0 "U1" H 1550 7100 50  0000 L CNN
F 1 "LM324" H 1550 6700 50  0000 L CNN
F 2 "Housings_SSOP:TSSOP-14_4.4x5mm_Pitch0.65mm" H 1500 7000 50  0001 C CNN
F 3 "" H 1600 7100 50  0000 C CNN
	2    1550 6900
	1    0    0    -1  
$EndComp
Text GLabel 10250 4100 0    60   Output ~ 0
SGND
Wire Wire Line
	10750 4100 10250 4100
$Comp
L +5V #PWR017
U 1 1 582F7860
P 1450 6550
F 0 "#PWR017" H 1450 6400 50  0001 C CNN
F 1 "+5V" H 1450 6690 50  0000 C CNN
F 2 "" H 1450 6550 50  0000 C CNN
F 3 "" H 1450 6550 50  0000 C CNN
	1    1450 6550
	1    0    0    -1  
$EndComp
$Comp
L GND #PWR018
U 1 1 582F7EB5
P 1450 7250
F 0 "#PWR018" H 1450 7000 50  0001 C CNN
F 1 "GND" H 1450 7100 50  0000 C CNN
F 2 "" H 1450 7250 50  0000 C CNN
F 3 "" H 1450 7250 50  0000 C CNN
	1    1450 7250
	1    0    0    -1  
$EndComp
Wire Wire Line
	1450 6600 1450 6550
Wire Wire Line
	1450 7200 1450 7250
Text GLabel 1950 6900 2    60   UnSpc ~ 0
S1_read
Wire Wire Line
	1850 6900 1950 6900
$Comp
L GND #PWR019
U 1 1 582F8A3F
P 2050 6450
F 0 "#PWR019" H 2050 6200 50  0001 C CNN
F 1 "GND" H 2050 6300 50  0000 C CNN
F 2 "" H 2050 6450 50  0000 C CNN
F 3 "" H 2050 6450 50  0000 C CNN
	1    2050 6450
	1    0    0    -1  
$EndComp
$Comp
L R R10
U 1 1 582F8A85
P 1600 6250
F 0 "R10" V 1500 6250 50  0000 C CNN
F 1 "1M" V 1600 6250 50  0000 C CNN
F 2 "Resistors_SMD:R_0603" V 1530 6250 50  0001 C CNN
F 3 "" H 1600 6250 50  0000 C CNN
	1    1600 6250
	0    1    1    0   
$EndComp
$Comp
L R R7
U 1 1 582F8B24
P 1000 6250
F 0 "R7" V 900 6250 50  0000 C CNN
F 1 "1M" V 1000 6250 50  0000 C CNN
F 2 "Resistors_SMD:R_0603" V 930 6250 50  0001 C CNN
F 3 "" H 1000 6250 50  0000 C CNN
	1    1000 6250
	0    1    1    0   
$EndComp
Wire Wire Line
	1750 6250 2050 6250
Wire Wire Line
	1150 6250 1450 6250
Wire Wire Line
	1200 6250 1200 6800
Wire Wire Line
	1200 6800 1250 6800
Connection ~ 1200 6250
Wire Wire Line
	1900 6900 1900 7500
Connection ~ 1900 6900
$Comp
L R R12
U 1 1 582F8FAA
P 1750 7500
F 0 "R12" V 1830 7500 50  0000 C CNN
F 1 "1M" V 1750 7500 50  0000 C CNN
F 2 "Resistors_SMD:R_0603" V 1680 7500 50  0001 C CNN
F 3 "" H 1750 7500 50  0000 C CNN
	1    1750 7500
	0    1    1    0   
$EndComp
$Comp
L R R8
U 1 1 582F9016
P 1000 7500
F 0 "R8" V 1080 7500 50  0000 C CNN
F 1 "1M" V 1000 7500 50  0000 C CNN
F 2 "Resistors_SMD:R_0603" V 930 7500 50  0001 C CNN
F 3 "" H 1000 7500 50  0000 C CNN
	1    1000 7500
	0    1    1    0   
$EndComp
Wire Wire Line
	1150 7500 1600 7500
Wire Wire Line
	1200 7500 1200 7000
Wire Wire Line
	1200 7000 1250 7000
Connection ~ 1200 7500
Text GLabel 800  6750 0    60   Output ~ 0
S1
Text GLabel 800  7050 0    60   Output ~ 0
S0
Wire Wire Line
	850  6250 850  6750
Wire Wire Line
	850  6750 800  6750
Wire Wire Line
	850  7500 850  7050
Wire Wire Line
	850  7050 800  7050
Wire Wire Line
	2050 6250 2050 6450
$Comp
L LM324 U1
U 1 1 582FA059
P 1550 5250
F 0 "U1" H 1550 5450 50  0000 L CNN
F 1 "LM324" H 1550 5050 50  0000 L CNN
F 2 "Housings_SSOP:TSSOP-14_4.4x5mm_Pitch0.65mm" H 1500 5350 50  0001 C CNN
F 3 "" H 1600 5450 50  0000 C CNN
	1    1550 5250
	1    0    0    -1  
$EndComp
$Comp
L +5V #PWR020
U 1 1 582FA05F
P 1450 4900
F 0 "#PWR020" H 1450 4750 50  0001 C CNN
F 1 "+5V" H 1450 5040 50  0000 C CNN
F 2 "" H 1450 4900 50  0000 C CNN
F 3 "" H 1450 4900 50  0000 C CNN
	1    1450 4900
	1    0    0    -1  
$EndComp
$Comp
L GND #PWR021
U 1 1 582FA065
P 1450 5600
F 0 "#PWR021" H 1450 5350 50  0001 C CNN
F 1 "GND" H 1450 5450 50  0000 C CNN
F 2 "" H 1450 5600 50  0000 C CNN
F 3 "" H 1450 5600 50  0000 C CNN
	1    1450 5600
	1    0    0    -1  
$EndComp
Wire Wire Line
	1450 4950 1450 4900
Wire Wire Line
	1450 5550 1450 5600
Text GLabel 1950 5250 2    60   UnSpc ~ 0
S0_read
Wire Wire Line
	1850 5250 1950 5250
$Comp
L GND #PWR022
U 1 1 582FA070
P 2050 4800
F 0 "#PWR022" H 2050 4550 50  0001 C CNN
F 1 "GND" H 2050 4650 50  0000 C CNN
F 2 "" H 2050 4800 50  0000 C CNN
F 3 "" H 2050 4800 50  0000 C CNN
	1    2050 4800
	1    0    0    -1  
$EndComp
$Comp
L R R9
U 1 1 582FA076
P 1600 4600
F 0 "R9" V 1500 4600 50  0000 C CNN
F 1 "1M" V 1600 4600 50  0000 C CNN
F 2 "Resistors_SMD:R_0603" V 1530 4600 50  0001 C CNN
F 3 "" H 1600 4600 50  0000 C CNN
	1    1600 4600
	0    1    1    0   
$EndComp
$Comp
L R R5
U 1 1 582FA07C
P 1000 4600
F 0 "R5" V 900 4600 50  0000 C CNN
F 1 "1M" V 1000 4600 50  0000 C CNN
F 2 "Resistors_SMD:R_0603" V 930 4600 50  0001 C CNN
F 3 "" H 1000 4600 50  0000 C CNN
	1    1000 4600
	0    1    1    0   
$EndComp
Wire Wire Line
	1750 4600 2050 4600
Wire Wire Line
	1150 4600 1450 4600
Wire Wire Line
	1200 4600 1200 5150
Wire Wire Line
	1200 5150 1250 5150
Connection ~ 1200 4600
Wire Wire Line
	1900 5250 1900 5850
Connection ~ 1900 5250
$Comp
L R R11
U 1 1 582FA08A
P 1750 5850
F 0 "R11" V 1830 5850 50  0000 C CNN
F 1 "1M" V 1750 5850 50  0000 C CNN
F 2 "Resistors_SMD:R_0603" V 1680 5850 50  0001 C CNN
F 3 "" H 1750 5850 50  0000 C CNN
	1    1750 5850
	0    1    1    0   
$EndComp
$Comp
L R R6
U 1 1 582FA090
P 1000 5850
F 0 "R6" V 1080 5850 50  0000 C CNN
F 1 "1M" V 1000 5850 50  0000 C CNN
F 2 "Resistors_SMD:R_0603" V 930 5850 50  0001 C CNN
F 3 "" H 1000 5850 50  0000 C CNN
	1    1000 5850
	0    1    1    0   
$EndComp
Wire Wire Line
	1150 5850 1600 5850
Wire Wire Line
	1200 5850 1200 5350
Wire Wire Line
	1200 5350 1250 5350
Connection ~ 1200 5850
Text GLabel 800  5100 0    60   Output ~ 0
S0
Text GLabel 800  5400 0    60   Output ~ 0
SGND
Wire Wire Line
	850  4600 850  5100
Wire Wire Line
	850  5100 800  5100
Wire Wire Line
	850  5850 850  5400
Wire Wire Line
	850  5400 800  5400
Wire Wire Line
	2050 4600 2050 4800
$Comp
L LM324 U1
U 4 1 582FC4D3
P 3550 6900
F 0 "U1" H 3550 7100 50  0000 L CNN
F 1 "LM324" H 3550 6700 50  0000 L CNN
F 2 "Housings_SSOP:TSSOP-14_4.4x5mm_Pitch0.65mm" H 3500 7000 50  0001 C CNN
F 3 "" H 3600 7100 50  0000 C CNN
	4    3550 6900
	1    0    0    -1  
$EndComp
$Comp
L +5V #PWR023
U 1 1 582FC4D9
P 3450 6550
F 0 "#PWR023" H 3450 6400 50  0001 C CNN
F 1 "+5V" H 3450 6690 50  0000 C CNN
F 2 "" H 3450 6550 50  0000 C CNN
F 3 "" H 3450 6550 50  0000 C CNN
	1    3450 6550
	1    0    0    -1  
$EndComp
$Comp
L GND #PWR024
U 1 1 582FC4DF
P 3450 7250
F 0 "#PWR024" H 3450 7000 50  0001 C CNN
F 1 "GND" H 3450 7100 50  0000 C CNN
F 2 "" H 3450 7250 50  0000 C CNN
F 3 "" H 3450 7250 50  0000 C CNN
	1    3450 7250
	1    0    0    -1  
$EndComp
Wire Wire Line
	3450 6600 3450 6550
Wire Wire Line
	3450 7200 3450 7250
Text GLabel 3950 6900 2    60   UnSpc ~ 0
S3_read
Wire Wire Line
	3850 6900 3950 6900
$Comp
L GND #PWR025
U 1 1 582FC4EA
P 4050 6450
F 0 "#PWR025" H 4050 6200 50  0001 C CNN
F 1 "GND" H 4050 6300 50  0000 C CNN
F 2 "" H 4050 6450 50  0000 C CNN
F 3 "" H 4050 6450 50  0000 C CNN
	1    4050 6450
	1    0    0    -1  
$EndComp
$Comp
L R R18
U 1 1 582FC4F0
P 3600 6250
F 0 "R18" V 3500 6250 50  0000 C CNN
F 1 "1M" V 3600 6250 50  0000 C CNN
F 2 "Resistors_SMD:R_0603" V 3530 6250 50  0001 C CNN
F 3 "" H 3600 6250 50  0000 C CNN
	1    3600 6250
	0    1    1    0   
$EndComp
$Comp
L R R15
U 1 1 582FC4F6
P 3000 6250
F 0 "R15" V 2900 6250 50  0000 C CNN
F 1 "1M" V 3000 6250 50  0000 C CNN
F 2 "Resistors_SMD:R_0603" V 2930 6250 50  0001 C CNN
F 3 "" H 3000 6250 50  0000 C CNN
	1    3000 6250
	0    1    1    0   
$EndComp
Wire Wire Line
	3750 6250 4050 6250
Wire Wire Line
	3150 6250 3450 6250
Wire Wire Line
	3200 6250 3200 6800
Wire Wire Line
	3200 6800 3250 6800
Connection ~ 3200 6250
Wire Wire Line
	3900 6900 3900 7500
Connection ~ 3900 6900
$Comp
L R R20
U 1 1 582FC504
P 3750 7500
F 0 "R20" V 3830 7500 50  0000 C CNN
F 1 "1M" V 3750 7500 50  0000 C CNN
F 2 "Resistors_SMD:R_0603" V 3680 7500 50  0001 C CNN
F 3 "" H 3750 7500 50  0000 C CNN
	1    3750 7500
	0    1    1    0   
$EndComp
$Comp
L R R16
U 1 1 582FC50A
P 3000 7500
F 0 "R16" V 3080 7500 50  0000 C CNN
F 1 "1M" V 3000 7500 50  0000 C CNN
F 2 "Resistors_SMD:R_0603" V 2930 7500 50  0001 C CNN
F 3 "" H 3000 7500 50  0000 C CNN
	1    3000 7500
	0    1    1    0   
$EndComp
Wire Wire Line
	3150 7500 3600 7500
Wire Wire Line
	3200 7500 3200 7000
Wire Wire Line
	3200 7000 3250 7000
Connection ~ 3200 7500
Text GLabel 2800 6750 0    60   Output ~ 0
S3
Text GLabel 2800 7050 0    60   Output ~ 0
S2
Wire Wire Line
	2850 6250 2850 6750
Wire Wire Line
	2850 6750 2800 6750
Wire Wire Line
	2850 7500 2850 7050
Wire Wire Line
	2850 7050 2800 7050
Wire Wire Line
	4050 6250 4050 6450
$Comp
L LM324 U1
U 3 1 582FC51C
P 3550 5250
F 0 "U1" H 3550 5450 50  0000 L CNN
F 1 "LM324" H 3550 5050 50  0000 L CNN
F 2 "Housings_SSOP:TSSOP-14_4.4x5mm_Pitch0.65mm" H 3500 5350 50  0001 C CNN
F 3 "" H 3600 5450 50  0000 C CNN
	3    3550 5250
	1    0    0    -1  
$EndComp
$Comp
L +5V #PWR026
U 1 1 582FC522
P 3450 4900
F 0 "#PWR026" H 3450 4750 50  0001 C CNN
F 1 "+5V" H 3450 5040 50  0000 C CNN
F 2 "" H 3450 4900 50  0000 C CNN
F 3 "" H 3450 4900 50  0000 C CNN
	1    3450 4900
	1    0    0    -1  
$EndComp
$Comp
L GND #PWR027
U 1 1 582FC528
P 3450 5600
F 0 "#PWR027" H 3450 5350 50  0001 C CNN
F 1 "GND" H 3450 5450 50  0000 C CNN
F 2 "" H 3450 5600 50  0000 C CNN
F 3 "" H 3450 5600 50  0000 C CNN
	1    3450 5600
	1    0    0    -1  
$EndComp
Wire Wire Line
	3450 4950 3450 4900
Wire Wire Line
	3450 5550 3450 5600
Text GLabel 3950 5250 2    60   UnSpc ~ 0
S2_read
Wire Wire Line
	3850 5250 3950 5250
$Comp
L GND #PWR028
U 1 1 582FC533
P 4050 4800
F 0 "#PWR028" H 4050 4550 50  0001 C CNN
F 1 "GND" H 4050 4650 50  0000 C CNN
F 2 "" H 4050 4800 50  0000 C CNN
F 3 "" H 4050 4800 50  0000 C CNN
	1    4050 4800
	1    0    0    -1  
$EndComp
$Comp
L R R17
U 1 1 582FC539
P 3600 4600
F 0 "R17" V 3500 4600 50  0000 C CNN
F 1 "1M" V 3600 4600 50  0000 C CNN
F 2 "Resistors_SMD:R_0603" V 3530 4600 50  0001 C CNN
F 3 "" H 3600 4600 50  0000 C CNN
	1    3600 4600
	0    1    1    0   
$EndComp
$Comp
L R R13
U 1 1 582FC53F
P 3000 4600
F 0 "R13" V 2900 4600 50  0000 C CNN
F 1 "1M" V 3000 4600 50  0000 C CNN
F 2 "Resistors_SMD:R_0603" V 2930 4600 50  0001 C CNN
F 3 "" H 3000 4600 50  0000 C CNN
	1    3000 4600
	0    1    1    0   
$EndComp
Wire Wire Line
	3750 4600 4050 4600
Wire Wire Line
	3150 4600 3450 4600
Wire Wire Line
	3200 4600 3200 5150
Wire Wire Line
	3200 5150 3250 5150
Connection ~ 3200 4600
Wire Wire Line
	3900 5250 3900 5850
Connection ~ 3900 5250
$Comp
L R R19
U 1 1 582FC54D
P 3750 5850
F 0 "R19" V 3830 5850 50  0000 C CNN
F 1 "1M" V 3750 5850 50  0000 C CNN
F 2 "Resistors_SMD:R_0603" V 3680 5850 50  0001 C CNN
F 3 "" H 3750 5850 50  0000 C CNN
	1    3750 5850
	0    1    1    0   
$EndComp
$Comp
L R R14
U 1 1 582FC553
P 3000 5850
F 0 "R14" V 3080 5850 50  0000 C CNN
F 1 "1M" V 3000 5850 50  0000 C CNN
F 2 "Resistors_SMD:R_0603" V 2930 5850 50  0001 C CNN
F 3 "" H 3000 5850 50  0000 C CNN
	1    3000 5850
	0    1    1    0   
$EndComp
Wire Wire Line
	3150 5850 3600 5850
Wire Wire Line
	3200 5850 3200 5350
Wire Wire Line
	3200 5350 3250 5350
Connection ~ 3200 5850
Text GLabel 2800 5100 0    60   Output ~ 0
S2
Text GLabel 2800 5400 0    60   Output ~ 0
S1
Wire Wire Line
	2850 4600 2850 5100
Wire Wire Line
	2850 5100 2800 5100
Wire Wire Line
	2850 5850 2850 5400
Wire Wire Line
	2850 5400 2800 5400
Wire Wire Line
	4050 4600 4050 4800
$Comp
L LM324 U2
U 4 1 582FCC0D
P 5550 6900
F 0 "U2" H 5550 7100 50  0000 L CNN
F 1 "LM324" H 5550 6700 50  0000 L CNN
F 2 "Housings_SSOP:TSSOP-14_4.4x5mm_Pitch0.65mm" H 5500 7000 50  0001 C CNN
F 3 "" H 5600 7100 50  0000 C CNN
	4    5550 6900
	1    0    0    -1  
$EndComp
$Comp
L +5V #PWR029
U 1 1 582FCC13
P 5450 6550
F 0 "#PWR029" H 5450 6400 50  0001 C CNN
F 1 "+5V" H 5450 6690 50  0000 C CNN
F 2 "" H 5450 6550 50  0000 C CNN
F 3 "" H 5450 6550 50  0000 C CNN
	1    5450 6550
	1    0    0    -1  
$EndComp
$Comp
L GND #PWR030
U 1 1 582FCC19
P 5450 7250
F 0 "#PWR030" H 5450 7000 50  0001 C CNN
F 1 "GND" H 5450 7100 50  0000 C CNN
F 2 "" H 5450 7250 50  0000 C CNN
F 3 "" H 5450 7250 50  0000 C CNN
	1    5450 7250
	1    0    0    -1  
$EndComp
Wire Wire Line
	5450 6600 5450 6550
Wire Wire Line
	5450 7200 5450 7250
Text GLabel 5950 6900 2    60   UnSpc ~ 0
S5_read
Wire Wire Line
	5850 6900 5950 6900
$Comp
L GND #PWR031
U 1 1 582FCC24
P 6050 6450
F 0 "#PWR031" H 6050 6200 50  0001 C CNN
F 1 "GND" H 6050 6300 50  0000 C CNN
F 2 "" H 6050 6450 50  0000 C CNN
F 3 "" H 6050 6450 50  0000 C CNN
	1    6050 6450
	1    0    0    -1  
$EndComp
$Comp
L R R26
U 1 1 582FCC2A
P 5600 6250
F 0 "R26" V 5500 6250 50  0000 C CNN
F 1 "1M" V 5600 6250 50  0000 C CNN
F 2 "Resistors_SMD:R_0603" V 5530 6250 50  0001 C CNN
F 3 "" H 5600 6250 50  0000 C CNN
	1    5600 6250
	0    1    1    0   
$EndComp
$Comp
L R R23
U 1 1 582FCC30
P 5000 6250
F 0 "R23" V 4900 6250 50  0000 C CNN
F 1 "1M" V 5000 6250 50  0000 C CNN
F 2 "Resistors_SMD:R_0603" V 4930 6250 50  0001 C CNN
F 3 "" H 5000 6250 50  0000 C CNN
	1    5000 6250
	0    1    1    0   
$EndComp
Wire Wire Line
	5750 6250 6050 6250
Wire Wire Line
	5150 6250 5450 6250
Wire Wire Line
	5200 6250 5200 6800
Wire Wire Line
	5200 6800 5250 6800
Connection ~ 5200 6250
Wire Wire Line
	5900 6900 5900 7500
Connection ~ 5900 6900
$Comp
L R R28
U 1 1 582FCC3E
P 5750 7500
F 0 "R28" V 5830 7500 50  0000 C CNN
F 1 "1M" V 5750 7500 50  0000 C CNN
F 2 "Resistors_SMD:R_0603" V 5680 7500 50  0001 C CNN
F 3 "" H 5750 7500 50  0000 C CNN
	1    5750 7500
	0    1    1    0   
$EndComp
$Comp
L R R24
U 1 1 582FCC44
P 5000 7500
F 0 "R24" V 5080 7500 50  0000 C CNN
F 1 "1M" V 5000 7500 50  0000 C CNN
F 2 "Resistors_SMD:R_0603" V 4930 7500 50  0001 C CNN
F 3 "" H 5000 7500 50  0000 C CNN
	1    5000 7500
	0    1    1    0   
$EndComp
Wire Wire Line
	5150 7500 5600 7500
Wire Wire Line
	5200 7500 5200 7000
Wire Wire Line
	5200 7000 5250 7000
Connection ~ 5200 7500
Text GLabel 4800 6750 0    60   Output ~ 0
S5
Text GLabel 4800 7050 0    60   Output ~ 0
S4
Wire Wire Line
	4850 6250 4850 6750
Wire Wire Line
	4850 6750 4800 6750
Wire Wire Line
	4850 7500 4850 7050
Wire Wire Line
	4850 7050 4800 7050
Wire Wire Line
	6050 6250 6050 6450
$Comp
L LM324 U2
U 1 1 582FCC56
P 5550 5250
F 0 "U2" H 5550 5450 50  0000 L CNN
F 1 "LM324" H 5550 5050 50  0000 L CNN
F 2 "Housings_SSOP:TSSOP-14_4.4x5mm_Pitch0.65mm" H 5500 5350 50  0001 C CNN
F 3 "" H 5600 5450 50  0000 C CNN
	1    5550 5250
	1    0    0    -1  
$EndComp
$Comp
L +5V #PWR032
U 1 1 582FCC5C
P 5450 4900
F 0 "#PWR032" H 5450 4750 50  0001 C CNN
F 1 "+5V" H 5450 5040 50  0000 C CNN
F 2 "" H 5450 4900 50  0000 C CNN
F 3 "" H 5450 4900 50  0000 C CNN
	1    5450 4900
	1    0    0    -1  
$EndComp
$Comp
L GND #PWR033
U 1 1 582FCC62
P 5450 5600
F 0 "#PWR033" H 5450 5350 50  0001 C CNN
F 1 "GND" H 5450 5450 50  0000 C CNN
F 2 "" H 5450 5600 50  0000 C CNN
F 3 "" H 5450 5600 50  0000 C CNN
	1    5450 5600
	1    0    0    -1  
$EndComp
Wire Wire Line
	5450 4950 5450 4900
Wire Wire Line
	5450 5550 5450 5600
Text GLabel 5950 5250 2    60   UnSpc ~ 0
S4_read
Wire Wire Line
	5850 5250 5950 5250
$Comp
L GND #PWR034
U 1 1 582FCC6D
P 6050 4800
F 0 "#PWR034" H 6050 4550 50  0001 C CNN
F 1 "GND" H 6050 4650 50  0000 C CNN
F 2 "" H 6050 4800 50  0000 C CNN
F 3 "" H 6050 4800 50  0000 C CNN
	1    6050 4800
	1    0    0    -1  
$EndComp
$Comp
L R R25
U 1 1 582FCC73
P 5600 4600
F 0 "R25" V 5500 4600 50  0000 C CNN
F 1 "1M" V 5600 4600 50  0000 C CNN
F 2 "Resistors_SMD:R_0603" V 5530 4600 50  0001 C CNN
F 3 "" H 5600 4600 50  0000 C CNN
	1    5600 4600
	0    1    1    0   
$EndComp
$Comp
L R R21
U 1 1 582FCC79
P 5000 4600
F 0 "R21" V 4900 4600 50  0000 C CNN
F 1 "1M" V 5000 4600 50  0000 C CNN
F 2 "Resistors_SMD:R_0603" V 4930 4600 50  0001 C CNN
F 3 "" H 5000 4600 50  0000 C CNN
	1    5000 4600
	0    1    1    0   
$EndComp
Wire Wire Line
	5750 4600 6050 4600
Wire Wire Line
	5150 4600 5450 4600
Wire Wire Line
	5200 4600 5200 5150
Wire Wire Line
	5200 5150 5250 5150
Connection ~ 5200 4600
Wire Wire Line
	5900 5250 5900 5850
Connection ~ 5900 5250
$Comp
L R R27
U 1 1 582FCC87
P 5750 5850
F 0 "R27" V 5830 5850 50  0000 C CNN
F 1 "1M" V 5750 5850 50  0000 C CNN
F 2 "Resistors_SMD:R_0603" V 5680 5850 50  0001 C CNN
F 3 "" H 5750 5850 50  0000 C CNN
	1    5750 5850
	0    1    1    0   
$EndComp
$Comp
L R R22
U 1 1 582FCC8D
P 5000 5850
F 0 "R22" V 5080 5850 50  0000 C CNN
F 1 "1M" V 5000 5850 50  0000 C CNN
F 2 "Resistors_SMD:R_0603" V 4930 5850 50  0001 C CNN
F 3 "" H 5000 5850 50  0000 C CNN
	1    5000 5850
	0    1    1    0   
$EndComp
Wire Wire Line
	5150 5850 5600 5850
Wire Wire Line
	5200 5850 5200 5350
Wire Wire Line
	5200 5350 5250 5350
Connection ~ 5200 5850
Text GLabel 4800 5100 0    60   Output ~ 0
S4
Text GLabel 4800 5400 0    60   Output ~ 0
S3
Wire Wire Line
	4850 4600 4850 5100
Wire Wire Line
	4850 5100 4800 5100
Wire Wire Line
	4850 5850 4850 5400
Wire Wire Line
	4850 5400 4800 5400
Wire Wire Line
	6050 4600 6050 4800
Text GLabel 5800 1600 2    60   UnSpc ~ 0
S0_read
Text GLabel 5450 1700 2    60   UnSpc ~ 0
S1_read
Text GLabel 5100 1800 2    60   UnSpc ~ 0
S2_read
Text GLabel 4750 1900 2    60   UnSpc ~ 0
S3_read
Text GLabel 4400 2100 2    60   UnSpc ~ 0
S4_read
Text GLabel 4050 2300 2    60   UnSpc ~ 0
S5_read
$EndSCHEMATC
